{
  "mugiwara" : [

    { "crewMember" : { "firstName": "Monkey D.", "lastName": "Luffy" } , "epithet": "Straw Hat Luffy", "bounty":400000000, "blog":"http://onepiece.wikia.com/wiki/Monkey_D._Luffy" , "occupation":"Captain", "epDebut":"1", "th_Member":"first" , "jollyRoger" : { "url" : "../images/jollyrogers/Luffy.jpg" } } 
  
    , { "crewMember" : { "firstName": "Roronoa", "lastName": "Zoro" } , "epithet":"Pirate Hunter Roronoa Zoro", "bounty":120000000, "blog":"http://onepiece.wikia.com/wiki/Roronoa_Zoro", "occupation":"Swordsman", "epDebut":"2", "th_Member":"second" , "jollyRoger" : { "url" : "../images/jollyrogers/Zoro.jpg" } }
  
    , { "crewMember" : { "firstName": "Nami", "lastName": "Melanine" } , "epithet": "Cat Burglar Nami", "bounty":16000000, "blog":"http://onepiece.wikia.com/wiki/Nami", "occupation":"Navigator", "epDebut":"1", "th_Member":"third" , "jollyRoger" : { "url" : "../images/jollyrogers/Nami.jpg" } } 
  
    , { "crewMember" : { "firstName": "Usopp", "lastName": "Usoppa" } , "epithet": "Sniper King Sogeking ", "bounty":30000000, "blog":"http://onepiece.wikia.com/wiki/Usopp", "occupation":"Sniper", "epDebut":"8", "th_Member":"fourth" , "jollyRoger" : { "url" : "../images/jollyrogers/Usopp.jpg" } } 
  
    , { "crewMember" : { "firstName": "Prince", "lastName": "Sanji"} , "epithet": "Black Leg Sanji", "bounty":77000000, "blog":"http://onepiece.wikia.com/wiki/Sanji", "occupation":"Chef", "epDebut":"20", "th_Member":"fifth" , "jollyRoger" : { "url" : "../images/jollyrogers/Sanji.jpg" } } 
  
    , { "crewMember" : { "firstName": "Tony Tony","lastName": "Chopper"} ,"epithet":"Cotton Candy Lover Chopper", "bounty":50, "blog":"http://onepiece.wikia.com/wiki/Tony_Tony_Chopper","occupation":"Doctor", "epDebut":"81", "th_Member":"sixth" , "jollyRoger" : { "url" : "../images/jollyrogers/Chopper.jpg" } }
  
    , { "crewMember" : { "firstName":"Princess Nefertari", "lastName":"Vivi" } , "epithet":"Miss Wednesday", "bounty":0, "blog":"http://onepiece.wikia.com/wiki/Nefertari_Vivi", "occupation":"Princess of Arabasta", "epDebut":"62", "club_Member":"unofficial seventh", "ally":1  , "jollyRoger" : { "url" : "../images/jollyrogers/Vivi.jpg" } } 
  
    , { "crewMember" : { "firstName": "Nico", "lastName": "Robin" } , "epithet": "Devil Child Nico Robin", "bounty":80000000, "blog":"http://onepiece.wikia.com/wiki/Nico_Robin", "occupation":"Archaelogist", "epDebut":"67", "th_Member":"seventh" , "jollyRoger" : { "url" : "../images/jollyrogers/Robin.jpg" } }
  
    , { "crewMember" : { "firstName": "Cutty", "lastName": "Flam" } , "epithet": "Cyborg Franky", "bounty":44000000, "blog":"http://onepiece.wikia.com/wiki/Franky", "occupation":"Shipwright", "epDebut":"233", "th_Member":"eighth" , "jollyRoger" : { "url" : "../images/jollyrogers/Franky.jpg" } }
  
    , { "crewMember" : { "firstName": "Brooke", "lastName": "Burukku" } , "epithet": "Humming Brook", "bounty":33000000, "blog":"http://onepiece.wikia.com/wiki/Brook", "occupation":"Musician", "epDebut":"337", "th_Member":"ninth" , "jollyRoger" : { "url" : "../images/jollyrogers/Brooke.jpg" } }
  
    , { "crewMember" : { "firstName":"Jinbei", "lastName":"Fishman" } , "epithet":"Knight of The Sea", "bounty":400000000, "blog":"http://onepiece.wikia.com/wiki/Jinbe", "occupation":"Captain of the Gyojin Sea Knights", "epDebut":"430", "club_Member":"unofficial tenth", "ally":1 , "jollyRoger" : { "url" : "../images/jollyrogers/Jinbei.jpg" } } 
   
   , { "crewMember" : { "firstName":"Trafalgar", "lastName":"Law" } , "epithet":"The Surgeon of Death", "bounty":440000000, "blog":"http://onepiece.wikia.com/wiki/Trafalgar_Law", "occupation":"Captain of the Heart Pirates", "epDebut":"392", "club_Member":"unofficial eleventh", "ally":1 , "jollyRoger" : { "url" : "../images/jollyrogers/Law.jpg" } } 
   
  ]
}